{
  "project_info": {
    "project_number": "195251164016",
    "firebase_url": "https://baby-clock-4478c.firebaseio.com",
    "project_id": "baby-clock-4478c",
    "storage_bucket": "baby-clock-4478c.appspot.com"
  },
  "client": [
    {
      "client_info": {
        "mobilesdk_app_id": "1:195251164016:android:9e5ee533ee6359207a35b5",
        "android_client_info": {
          "package_name": "dev.iamgerard.babyclock"
        }
      },
      "oauth_client": [
        {
          "client_id": "195251164016-iuudlhfk1uu7han93rmfja8o5rflbhin.apps.googleusercontent.com",
          "client_type": 3
        }
      ],
      "api_key": [
        {
          "current_key": "AIzaSyDHWdtDB_Hyilm3mKczkrD5UZJ1mWUYVZA"
        }
      ],
      "services": {
        "appinvite_service": {
          "other_platform_oauth_client": [
            {
              "client_id": "195251164016-iuudlhfk1uu7han93rmfja8o5rflbhin.apps.googleusercontent.com",
              "client_type": 3
            }
          ]
        }
      }
    }
  ],
  "configuration_version": "1"
}